<?xml version="1.0" encoding="UTF-8" standalone="no"?>
<svg
   xmlns:osb="http://www.openswatchbook.org/uri/2009/osb"
   xmlns:dc="http://purl.org/dc/elements/1.1/"
   xmlns:cc="http://creativecommons.org/ns#"
   xmlns:rdf="http://www.w3.org/1999/02/22-rdf-syntax-ns#"
   xmlns:svg="http://www.w3.org/2000/svg"
   xmlns="http://www.w3.org/2000/svg"
   xmlns:xlink="http://www.w3.org/1999/xlink"
   xmlns:sodipodi="http://sodipodi.sourceforge.net/DTD/sodipodi-0.dtd"
   xmlns:inkscape="http://www.inkscape.org/namespaces/inkscape"
   width="36"
   height="36"
   viewBox="0 0 9.5249998 9.5250003"
   version="1.1"
   id="svg8"
   inkscape:version="1.0.1 (3bc2e813f5, 2020-09-07)"
   sodipodi:docname="LAMB2.svg"
   inkscape:export-filename="/home/the3dman/QT-Apps/WEB/images/WorldEnglishBible.png"
   inkscape:export-xdpi="255.99937"
   inkscape:export-ydpi="255.99937">
  <defs
     id="defs2">
    <linearGradient
       inkscape:collect="always"
       id="linearGradient2916">
      <stop
         style="stop-color:#28170b;stop-opacity:1"
         offset="0"
         id="stop2912" />
      <stop
         style="stop-color:#d5b98b;stop-opacity:1"
         offset="1"
         id="stop2914" />
    </linearGradient>
    <linearGradient
       inkscape:collect="always"
       id="linearGradient2892">
      <stop
         style="stop-color:#a05a2c;stop-opacity:1"
         offset="0"
         id="stop2888" />
      <stop
         style="stop-color:#e9ddaf;stop-opacity:1"
         offset="1"
         id="stop2890" />
    </linearGradient>
    <linearGradient
       id="linearGradient2880"
       osb:paint="solid">
      <stop
         style="stop-color:#000000;stop-opacity:1;"
         offset="0"
         id="stop2878" />
    </linearGradient>
    <linearGradient
       inkscape:collect="always"
       xlink:href="#linearGradient2892"
       id="linearGradient2894"
       x1="108.01704"
       y1="188.8589"
       x2="112.45898"
       y2="140.65927"
       gradientUnits="userSpaceOnUse" />
    <linearGradient
       inkscape:collect="always"
       xlink:href="#linearGradient2892"
       id="linearGradient2896"
       gradientUnits="userSpaceOnUse"
       x1="108.01704"
       y1="188.8589"
       x2="112.45898"
       y2="140.65927" />
    <linearGradient
       inkscape:collect="always"
       xlink:href="#linearGradient2892"
       id="linearGradient2898"
       gradientUnits="userSpaceOnUse"
       x1="108.01704"
       y1="188.8589"
       x2="112.45898"
       y2="140.65927" />
    <radialGradient
       inkscape:collect="always"
       xlink:href="#linearGradient2916"
       id="radialGradient2910"
       cx="102.92026"
       cy="148.68454"
       fx="102.92026"
       fy="148.68454"
       r="7.4724121"
       gradientTransform="matrix(1.0116578,-0.00138313,3.301792e-4,0.24150343,-2.23741,112.50048)"
       gradientUnits="userSpaceOnUse" />
    <linearGradient
       inkscape:collect="always"
       xlink:href="#linearGradient2892"
       id="linearGradient2942"
       x1="99.31398"
       y1="115.61398"
       x2="116.72673"
       y2="115.12305"
       gradientUnits="userSpaceOnUse"
       gradientTransform="matrix(0.09572081,0,0,0.09572117,-4.9654623,-7.5458625)" />
    <linearGradient
       inkscape:collect="always"
       xlink:href="#linearGradient2892"
       id="linearGradient2952"
       x1="102.68182"
       y1="95.944305"
       x2="103.82608"
       y2="110.89134"
       gradientUnits="userSpaceOnUse"
       gradientTransform="matrix(0.09572081,0,0,0.09572117,-4.9654623,-7.5458625)" />
    <filter
       style="color-interpolation-filters:sRGB"
       inkscape:label="Stone Wall"
       id="filter5609"
       x="-0.028835854"
       width="1.0576717"
       y="-0.086709857"
       height="1.1734197"
       inkscape:menu-tooltip="Stone wall texture to use with not too saturated colors"
       inkscape:menu="Textures">
      <feTurbulence
         type="fractalNoise"
         baseFrequency="0.128543 0.381156"
         numOctaves="5"
         seed="51"
         result="turbulence"
         id="feTurbulence5593" />
      <feComposite
         in="SourceGraphic"
         in2="turbulence"
         operator="in"
         result="composite1"
         id="feComposite5595" />
      <feColorMatrix
         values="1 0 0 0 0 0 1 0 0 0 0 0 1 0 0 0 0 0 4.46859 -1.09599 "
         result="color"
         id="feColorMatrix5597" />
      <feFlood
         flood-opacity="0.564706"
         flood-color="rgb(157,99,0)"
         result="flood"
         id="feFlood5599" />
      <feMerge
         result="merge"
         id="feMerge5605">
        <feMergeNode
           in="flood"
           id="feMergeNode5601" />
        <feMergeNode
           in="color"
           id="feMergeNode5603" />
      </feMerge>
      <feComposite
         in2="SourceGraphic"
         operator="in"
         result="fbSourceGraphic"
         id="feComposite5607" />
      <feColorMatrix
         result="fbSourceGraphicAlpha"
         in="fbSourceGraphic"
         values="0 0 0 -1 0 0 0 0 -1 0 0 0 0 -1 0 0 0 0 1 0"
         id="feColorMatrix5643" />
      <feTurbulence
         id="feTurbulence5645"
         type="turbulence"
         numOctaves="5"
         baseFrequency="0.08 0.175"
         seed="25" />
      <feColorMatrix
         id="feColorMatrix5647"
         result="result5"
         values="1 0 0 0 0 0 1 0 0 0 0 0 1 0 0 0 0 0 2 0 " />
      <feComposite
         in2="result5"
         id="feComposite5649"
         in="fbSourceGraphic"
         operator="in" />
      <feMorphology
         id="feMorphology5651"
         operator="dilate"
         radius="0.65"
         result="result3" />
      <feTurbulence
         id="feTurbulence5653"
         numOctaves="7"
         baseFrequency="0.05 0.09"
         type="fractalNoise"
         seed="25" />
      <feGaussianBlur
         id="feGaussianBlur5655"
         stdDeviation="0.8034398"
         result="result7" />
      <feDisplacementMap
         in2="result7"
         id="feDisplacementMap5657"
         in="result3"
         xChannelSelector="R"
         yChannelSelector="G"
         scale="5"
         result="result4" />
      <feFlood
         id="feFlood5659"
         flood-opacity="1"
         flood-color="rgb(255,255,255)"
         result="result8" />
      <feComposite
         in2="result4"
         id="feComposite5661"
         k3="0.7"
         k1="0.7"
         result="result2"
         operator="arithmetic"
         k2="0"
         k4="0" />
      <feComposite
         in2="fbSourceGraphicAlpha"
         id="feComposite5663"
         k2="1"
         in="result2"
         operator="arithmetic"
         k1="1"
         result="result6"
         k3="0"
         k4="0" />
      <feBlend
         in2="result6"
         id="feBlend5665"
         mode="multiply"
         in="result6" />
    </filter>
  </defs>
  <sodipodi:namedview
     id="base"
     pagecolor="#ffffff"
     bordercolor="#666666"
     borderopacity="1.0"
     inkscape:pageopacity="0.0"
     inkscape:pageshadow="2"
     inkscape:zoom="13.1614"
     inkscape:cx="16.853557"
     inkscape:cy="19.861696"
     inkscape:document-units="mm"
     inkscape:current-layer="layer1"
     inkscape:document-rotation="0"
     showgrid="false"
     inkscape:window-width="1920"
     inkscape:window-height="1144"
     inkscape:window-x="0"
     inkscape:window-y="0"
     inkscape:window-maximized="1"
     showguides="false"
     units="px" />
  <metadata
     id="metadata5">
    <rdf:RDF>
      <cc:Work
         rdf:about="">
        <dc:format>image/svg+xml</dc:format>
        <dc:type
           rdf:resource="http://purl.org/dc/dcmitype/StillImage" />
        <dc:title></dc:title>
      </cc:Work>
    </rdf:RDF>
  </metadata>
  <g
     inkscape:label="Layer 1"
     inkscape:groupmode="layer"
     id="layer1">
    <g
       aria-label="WEB"
       id="text843"
       style="font-style:normal;font-weight:normal;font-size:32.1048px;line-height:1.25;font-family:sans-serif;fill:#000000;fill-opacity:1;stroke:none;stroke-width:0.253459" />
    <g
       id="g951"
       inkscape:export-xdpi="255.99937"
       inkscape:export-ydpi="255.99937">
      <ellipse
         style="opacity:0.724826;fill:#afdde9;stroke:#d06103;stroke-width:0.35211;stroke-linecap:round;stroke-linejoin:round"
         id="path833"
         cx="4.7431226"
         cy="4.8053365"
         rx="4.5421681"
         ry="4.5421848" />
      <g
         id="g881"
         style="opacity:0.71183;fill:url(#linearGradient2894);fill-opacity:1;stroke:none;filter:url(#filter5609)"
         transform="matrix(0.11357526,0.00325004,-0.00296088,0.12466697,-6.3142024,-13.029745)">
        <path
           style="fill:url(#linearGradient2896);fill-opacity:1;stroke:none;stroke-width:0.264583px;stroke-linecap:butt;stroke-linejoin:miter;stroke-opacity:1"
           d="m 135.09843,161.16181 c -38.59048,-19.21772 -66.870776,0 -66.870776,0 z"
           id="path861" />
        <path
           style="fill:url(#linearGradient2898);fill-opacity:1;stroke:none;stroke-width:0.274204px;stroke-linecap:butt;stroke-linejoin:miter;stroke-opacity:1"
           d="m 135.09843,160.16918 -23.9845,14.39824 -21.285527,-0.42658 -17.270264,-9.47197 -4.330485,-4.49969 z"
           id="path865" />
      </g>
      <ellipse
         style="opacity:0.835588;fill:#ffcc00;fill-opacity:1;stroke:none;stroke-width:1.12653;stroke-linecap:round;stroke-linejoin:round;stroke-miterlimit:4;stroke-dasharray:none;stroke-opacity:1"
         id="path2956"
         cx="4.8682952"
         cy="2.0018985"
         rx="1.6109288"
         ry="1.6109349" />
      <rect
         style="fill:url(#linearGradient2952);fill-opacity:1;stroke:none;stroke-width:0.596821;stroke-linecap:round;stroke-linejoin:round;stroke-miterlimit:4;stroke-dasharray:none;stroke-opacity:1"
         id="rect2944"
         width="4.3006372"
         height="0.60934162"
         x="2.7073524"
         y="1.552852" />
      <path
         style="fill:url(#linearGradient2942);fill-opacity:1;stroke:none;stroke-width:0.0253261px;stroke-linecap:butt;stroke-linejoin:miter;stroke-opacity:1"
         d="M 4.5409523,6.6190874 V 0.33862116 H 5.2216632 L 5.0876119,6.6048125 c 0,0 -0.2825869,0.2112174 -0.5466596,0.014275 z"
         id="path2918" />
      <rect
         style="opacity:0.835588;fill:#784421;fill-opacity:1;stroke:none;stroke-width:0.601101;stroke-linecap:round;stroke-linejoin:round;stroke-miterlimit:4;stroke-dasharray:none;stroke-opacity:1"
         id="rect2954"
         width="8.4718876"
         height="2.8166239"
         x="0.50841635"
         y="2.8219192" />
      <ellipse
         style="fill:none;fill-opacity:1;stroke:#000000;stroke-width:0.59682;stroke-linecap:round;stroke-linejoin:round;stroke-miterlimit:4;stroke-dasharray:none;stroke-opacity:1"
         id="path839"
         cx="4.7529449"
         cy="4.7751637"
         rx="4.4640841"
         ry="4.4641008" />
      <g
         aria-label="LAMB"
         id="text893"
         style="font-style:normal;font-weight:normal;font-size:2.8575px;line-height:1.25;font-family:sans-serif;fill:#000000;fill-opacity:1;stroke:none;stroke-width:0.264583">
        <path
           d="m 1.6713431,5.0401073 h 0.5000625 q 0.09144,-0.13716 0.1343025,-0.3629025 0.05715,-0.00857 0.1114425,-0.00857 0.054293,0 0.1000125,0.00857 l -0.028575,0.5400675 h -1.411605 l 0.01143,-0.1171575 Q 1.1998556,5.0829698 1.2512906,5.0286773 V 3.5142022 q -0.04572,-0.040005 -0.177165,-0.085725 l 0.014288,-0.1171575 h 0.7972425 l -0.017145,0.1171575 q -0.1228725,0.02286 -0.1971675,0.085725 z"
           style="font-style:normal;font-variant:normal;font-weight:bold;font-stretch:normal;font-size:2.8575px;font-family:Caladea;-inkscape-font-specification:'Caladea Bold';fill:#ffffff;stroke-width:0.264583"
           id="path928" />
        <path
           d="M 3.7973194,5.0315348 3.6630169,4.6229123 h -0.588645 l -0.13716,0.394335 q 0.08001,0.065722 0.2428875,0.085725 l -0.014288,0.1143 H 2.5200168 l 0.017145,-0.1143 q 0.131445,-0.00572 0.1743075,-0.071438 L 3.3201169,3.3113197 h 0.29718 l 0.6143625,1.6944976 q 0.04572,0.074295 0.1743075,0.097155 l -0.014288,0.1143 h -0.782955 l 0.017145,-0.1143 q 0.131445,-0.020003 0.17145,-0.071438 z M 3.3801244,3.7570897 3.1372369,4.4428898 h 0.4657725 z"
           style="font-style:normal;font-variant:normal;font-weight:bold;font-stretch:normal;font-size:2.8575px;font-family:Caladea;-inkscape-font-specification:'Caladea Bold';fill:#ffffff;stroke-width:0.264583"
           id="path930" />
        <path
           d="M 6.7576853,5.1058298 6.7376828,5.2172723 H 5.9633002 l 0.01143,-0.1171575 q 0.097155,-0.020003 0.1600201,-0.085725 V 3.7656622 L 5.6689777,5.2172723 H 5.4489502 L 4.9374577,3.8428147 v 1.1715751 q 0.065722,0.060008 0.2143125,0.09144 l -0.020002,0.1114425 h -0.61722 l 0.01143,-0.1171575 q 0.094297,-0.017145 0.1628775,-0.085725 V 3.5142022 q -0.060008,-0.051435 -0.1743075,-0.09144 l 0.01143,-0.1114425 h 0.645795 l 0.4657725,1.2858751 0.40005,-1.2858751 h 0.6972301 l -0.017145,0.1114425 q -0.1114425,0.03429 -0.1743075,0.09144 v 1.5001876 q 0.065722,0.060008 0.2143125,0.09144 z"
           style="font-style:normal;font-variant:normal;font-weight:bold;font-stretch:normal;font-size:2.8575px;font-family:Caladea;-inkscape-font-specification:'Caladea Bold';fill:#ffffff;stroke-width:0.264583"
           id="path932" />
        <path
           d="m 7.7520918,3.3113197 q 0.3743325,0 0.5715001,0.1228725 0.1971675,0.120015 0.1971675,0.3514725 0,0.3143251 -0.3486151,0.4057651 0.2000251,0.060008 0.3057526,0.188595 0.108585,0.12573 0.108585,0.3000375 0,0.25146 -0.20574,0.394335 -0.2057401,0.142875 -0.5657851,0.142875 h -0.88011 l 0.01143,-0.1171575 q 0.097155,-0.020003 0.1628775,-0.085725 V 3.5142022 q -0.051435,-0.051435 -0.1743075,-0.09144 l 0.01143,-0.1114425 z m -0.06858,0.9915526 h -0.154305 v 0.7286625 q 0.1114425,0.00857 0.19431,0.00857 0.2085975,0 0.3057525,-0.085725 0.1000125,-0.085725 0.1000125,-0.2714625 0,-0.3800475 -0.44577,-0.3800475 z m 0.394335,-0.5114926 q 0,-0.14859 -0.094297,-0.2257425 -0.094297,-0.08001 -0.2371725,-0.08001 -0.1400175,0 -0.21717,0.01143 v 0.6257926 h 0.1571625 q 0.3914775,0 0.3914775,-0.3314701 z"
           style="font-style:normal;font-variant:normal;font-weight:bold;font-stretch:normal;font-size:2.8575px;font-family:Caladea;-inkscape-font-specification:'Caladea Bold';fill:#ffffff;stroke-width:0.264583"
           id="path934" />
      </g>
    </g>
  </g>
</svg>
